…
``` r
#Function to clean
picoxystrobin.joined.2 %>% filter(!EC50 %in% Outlier(EC50))
```

    ## # A tibble: 36 × 15
    ##       ID RG_0.01 RG_0.02 RG_0.04 RG_0.06 RG_0.1 Estimate.10    SE.10    EC50
    ##    <dbl>   <dbl>   <dbl>   <dbl>   <dbl>  <dbl>       <dbl>    <dbl>   <dbl>
    ##  1     1    55.8    37.4    19.6   15.4   10.0      0.00169 0.000264 0.0123 
    ##  2    12    55.8    39.7    25.3   19.5   12.2      0.00124 0.000198 0.0128 
    ##  3    20    56.7    37.5    21.4   15.0    8.74     0.00181 0.000291 0.0127 
    ##  4    21    56.9    23.3    14.0    8.90   8.90     0.00268 0.000564 0.0111 
    ##  5    74    49.9    24.1    14.5   12.0    9.84     0.00135 0.000497 0.00906
    ##  6    87    49.8    25.0    15.0   11.7    9.10     0.00136 0.000557 0.00916
    ##  7   118    55.0    36.1    24.0   18.9    9.89     0.00126 0.000226 0.0120 
    ##  8   123    54.2    38.4    20.7   11.6    8.17     0.00179 0.000337 0.0121 
    ##  9   449    56.0    30.8    19.0   18.0   11.5      0.00135 0.000494 0.0111 
    ## 10   461    53.9    34.8    20.7   18.3   11.8      0.00115 0.000458 0.0111 
    ## # … with 26 more rows, and 6 more variables: SE.50 <dbl>, Estimate.90 <dbl>,
    ## #   SE.90 <dbl>, source <fct>, Host <fct>, logEC50 <dbl>
…
